Processor	13th Gen Intel® Core i9-13900H, up to 5.4 GHz – 24 MB cache – 14 total cores
Display	16" FHD+ (1920x1200) Matte Finish, 16:10, 165 Hz
Graphics	NVIDIA GeForce RTX 4050, 4060, or 4070 and Intel® Iris Xe Graphics (switchable)
Memory	Up to 64 GB dual-channel DDR5 @ 4800 MHz
Storage	2x M.2 PCIe Gen 4 SSD, Up to 8 TB total
Expansion	2 x USB 3.2 Gen 1 (Type A), 1 x USB 3.2 Gen 2 (Type C), 1 x Thunderbolt 4 (Type C), MicroSD Card Reader
Input	Multitouch Touchpad, Multi-Color Backlit Chiclet US QWERTY Keyboard
Networking	2.5 GbE Ethernet, WiFi 6E, Bluetooth 5
Video Ports	1 x HDMI (w/HDCP), 1 x Mini DisplayPort 1.4, 1 x Thunderbolt™ 4
Audio	Internal Speakers, 2-in-1 Audio Jack (Headphone / Microphone), Microphone Jack
Camera	720p HD Camera
Security	Disabled ME, Kensington® Lock
Battery	4 cell Lithium-Ion - 73Wh
Charger	230 Watts, AC-in 100~240V, 50~60Hz
Dimensions	0.78" × 14.15" × 10.75" (19.9 mm × 359.5 mm x 273 mm )
Weight	5.95 lbs (2.7 kg) -- Base weight. Varies on configuration.
Model	oryp11