{
  "qnas": [
    {
      "id": "12yg6ja7nk_are_you_based_on_qary",
      "data": {
        "answers": {
          "en": [
            "Not really, but I use qary to answer questions that I can't answer."
          ]
        },
        "questions": {
          "en": [
            "Are you based on qary?"
          ]
        },
        "redirectFlow": "",
        "redirectNode": "",
        "action": "text",
        "enabled": true,
        "contexts": [
          "global"
        ]
      }
    },
    {
      "id": "7elgswljqq_what_can_you_do",
      "data": {
        "answers": {
          "en": [
            "I can answer questions about things like Tangible AI, or data science and python, or about the other interns and contributors at Tangible AI that are helping us make the world a better place."
          ]
        },
        "questions": {
          "en": [
            "What can you do?"
          ]
        },
        "redirectFlow": "",
        "redirectNode": "",
        "action": "text",
        "enabled": true,
        "contexts": [
          "global"
        ]
      }
    },
    {
      "id": "h1p16gfddv_who_built_you",
      "data": {
        "answers": {
          "en": [
            "John May, Hobson Lane, and Maria Dyshel all contributed, as well as some interns past, present... and future? You should really contribute! http://gitlab.com/tangibleai/tanbot"
          ]
        },
        "questions": {
          "en": [
            "Who built you?"
          ]
        },
        "redirectFlow": "",
        "redirectNode": "",
        "action": "text",
        "enabled": true,
        "contexts": [
          "global"
        ]
      }
    },
    {
      "id": "s4agdqua9z_where_is_qary",
      "data": {
        "answers": {
          "en": [
            "Qary's \"brain\" can sometimes be found running at http://qary.ai . It can also live on your laptop or in your \"on-prem\" servers at your company if you download and install it from source here: http://gitlab.com/tangibleai/qary"
          ]
        },
        "questions": {
          "en": [
            "Where is qary?"
          ]
        },
        "redirectFlow": "",
        "redirectNode": "",
        "action": "text",
        "enabled": true,
        "contexts": [
          "global"
        ]
      }
    },
    {
      "id": "xnhfg6cmqe_are_you_open_source",
      "data": {
        "answers": {
          "en": [
            "Yes! All the content and the exported configuration files for this bot are available on gitlab under the MIT Do No Harm (Hippocratic0 license. Knock yourself out!"
          ]
        },
        "questions": {
          "en": [
            "Are you open source?"
          ]
        },
        "redirectFlow": "",
        "redirectNode": "",
        "action": "text",
        "enabled": true,
        "contexts": [
          "global"
        ]
      }
    }
  ],
  "contentElements": []
}